…
homicide_df %>% 
  select(city_state, resolved) %>% 
  filter(city_state != "Tulsa_AL")
```

    ## # A tibble: 52,178 x 2
    ##    city_state     resolved
    ##    <chr>          <chr>   
    ##  1 Albuquerque_NM unsolved
    ##  2 Albuquerque_NM solved  
    ##  3 Albuquerque_NM unsolved
    ##  4 Albuquerque_NM solved  
    ##  5 Albuquerque_NM unsolved
    ##  6 Albuquerque_NM unsolved
    ##  7 Albuquerque_NM solved  
    ##  8 Albuquerque_NM solved  
    ##  9 Albuquerque_NM unsolved
    ## 10 Albuquerque_NM unsolved
    ## # … with 52,168 more rows
…
